<svg version="1.2" xmlns="http://www.w3.org/2000/svg" viewBox="0 0 24 24" width="24" height="24">
	<title>envelopelogo-svg</title>
	<style>
		.s0 { fill: #ffffff } 
	</style>
	<g id="surface1">
		<path id="Layer" fill-rule="evenodd" class="s0" d="m23.8 8.5q0.2 0.4 0.2 0.9v12.3c0 1.3-1 2.3-2.3 2.3h-19.4c-1.3 0-2.3-1-2.3-2.3v-12.3q0-0.5 0.2-0.9 0.2-0.5 0.6-0.8c0.2-0.1 5.2-4.2 6.4-5.1 1-0.8 2.8-2.6 4.8-2.6 2 0 3.8 1.8 4.8 2.6 1.1 0.9 6.2 4.9 6.4 5.1q0.4 0.3 0.6 0.8zm-2.1 1.1q0.1-0.1 0-0.1 0-0.1-0.1-0.1c-0.7-0.6-5.1-4.1-6.2-5-0.8-0.7-2.3-2.1-3.4-2.1-1.1 0-2.6 1.4-3.4 2.1-1.1 0.9-5.5 4.4-6.2 5q-0.1 0-0.2 0.2v11.9q0.1 0.1 0.1 0.2 0.1 0 0.2 0c0.1 0 19.1 0 19.2 0q0-0.1 0-0.2zm-1.5 3.1c0.2 0.2 0.2 0.6 0 0.8-1.4 1-2.8 2.2-3.4 2.6-1 0.9-2.8 2.6-4.8 2.6-2 0-3.8-1.8-4.8-2.6-0.6-0.4-2-1.5-3.4-2.6-0.2-0.2-0.2-0.6-0.1-0.8l0.8-0.9c0.2-0.2 0.5-0.3 0.7-0.1 1.4 1.1 2.8 2.2 3.4 2.7 0.8 0.6 2.3 2.1 3.4 2.1 1.1 0 2.6-1.5 3.4-2.1 0.6-0.5 2-1.6 3.3-2.7 0.3-0.2 0.6-0.1 0.8 0.1z"/>
	</g>
</svg>